{
    "title":"菜单栏",
    "item":[
        {
            "icon":20,
            "name":"首页",
            "action":""
        },
        {
            "icon":12,
            "name":"新闻",
            "page":"news",
            "action":"table"
        },
        {
            "icon":40,
            "name":"行业新闻",
            "page":"hynews",
            "action":"table"
        },
        {
            "icon":14,
            "name":"管理者",
            "page":"manager",
            "action":"table"
        }
    ]
}